%YAML 1.1
%TAG !u! tag:unity3d.com,2011:
--- !u!114 &11400000
MonoBehaviour:
  m_ObjectHideFlags: 0
  m_CorrespondingSourceObject: {fileID: 0}
  m_PrefabInstance: {fileID: 0}
  m_PrefabAsset: {fileID: 0}
  m_GameObject: {fileID: 0}
  m_Enabled: 1
  m_EditorHideFlags: 0
  m_Script: {fileID: 11500000, guid: d8a8eb6647f1e6b4dafdda9040fff99f, type: 3}
  m_Name: Pen
  m_EditorClassIdentifier: 
  prefab: {fileID: 7724357220519053885, guid: 672b22512b60ab24f974046fe3ae9aa5, type: 3}
  type: 1
  description: 
  atkBonus: 0
  defenceBonus: 0
