%YAML 1.1
%TAG !u! tag:unity3d.com,2011:
--- !u!1001 &3795088488829356220
PrefabInstance:
  m_ObjectHideFlags: 0
  serializedVersion: 2
  m_Modification:
    m_TransformParent: {fileID: 0}
    m_Modifications:
    - target: {fileID: 1158754678514140, guid: 0bc9f3e0b20fe984697b880329a181fd, type: 3}
      propertyPath: m_Name
      value: Pen Variant
      objectReference: {fileID: 0}
    - target: {fileID: 4414685883407140, guid: 0bc9f3e0b20fe984697b880329a181fd, type: 3}
      propertyPath: m_LocalPosition.x
      value: 0
      objectReference: {fileID: 0}
    - target: {fileID: 4414685883407140, guid: 0bc9f3e0b20fe984697b880329a181fd, type: 3}
      propertyPath: m_LocalPosition.y
      value: 0
      objectReference: {fileID: 0}
    - target: {fileID: 4414685883407140, guid: 0bc9f3e0b20fe984697b880329a181fd, type: 3}
      propertyPath: m_LocalPosition.z
      value: 0
      objectReference: {fileID: 0}
    - target: {fileID: 4414685883407140, guid: 0bc9f3e0b20fe984697b880329a181fd, type: 3}
      propertyPath: m_LocalRotation.x
      value: 0
      objectReference: {fileID: 0}
    - target: {fileID: 4414685883407140, guid: 0bc9f3e0b20fe984697b880329a181fd, type: 3}
      propertyPath: m_LocalRotation.y
      value: 0
      objectReference: {fileID: 0}
    - target: {fileID: 4414685883407140, guid: 0bc9f3e0b20fe984697b880329a181fd, type: 3}
      propertyPath: m_LocalRotation.z
      value: 0
      objectReference: {fileID: 0}
    - target: {fileID: 4414685883407140, guid: 0bc9f3e0b20fe984697b880329a181fd, type: 3}
      propertyPath: m_LocalRotation.w
      value: 1
      objectReference: {fileID: 0}
    - target: {fileID: 4414685883407140, guid: 0bc9f3e0b20fe984697b880329a181fd, type: 3}
      propertyPath: m_RootOrder
      value: 0
      objectReference: {fileID: 0}
    - target: {fileID: 4414685883407140, guid: 0bc9f3e0b20fe984697b880329a181fd, type: 3}
      propertyPath: m_LocalEulerAnglesHint.x
      value: 0
      objectReference: {fileID: 0}
    - target: {fileID: 4414685883407140, guid: 0bc9f3e0b20fe984697b880329a181fd, type: 3}
      propertyPath: m_LocalEulerAnglesHint.y
      value: 0
      objectReference: {fileID: 0}
    - target: {fileID: 4414685883407140, guid: 0bc9f3e0b20fe984697b880329a181fd, type: 3}
      propertyPath: m_LocalEulerAnglesHint.z
      value: 0
      objectReference: {fileID: 0}
    - target: {fileID: 65542708928923838, guid: 0bc9f3e0b20fe984697b880329a181fd,
        type: 3}
      propertyPath: m_Size.x
      value: 1
      objectReference: {fileID: 0}
    - target: {fileID: 65542708928923838, guid: 0bc9f3e0b20fe984697b880329a181fd,
        type: 3}
      propertyPath: m_Size.y
      value: 1
      objectReference: {fileID: 0}
    - target: {fileID: 65542708928923838, guid: 0bc9f3e0b20fe984697b880329a181fd,
        type: 3}
      propertyPath: m_Size.z
      value: 1
      objectReference: {fileID: 0}
    - target: {fileID: 65542708928923838, guid: 0bc9f3e0b20fe984697b880329a181fd,
        type: 3}
      propertyPath: m_Center.z
      value: 0
      objectReference: {fileID: 0}
    - target: {fileID: 65542708928923838, guid: 0bc9f3e0b20fe984697b880329a181fd,
        type: 3}
      propertyPath: m_IsTrigger
      value: 1
      objectReference: {fileID: 0}
    - target: {fileID: 65542708928923838, guid: 0bc9f3e0b20fe984697b880329a181fd,
        type: 3}
      propertyPath: m_Center.y
      value: 0
      objectReference: {fileID: 0}
    m_RemovedComponents: []
  m_SourcePrefab: {fileID: 100100000, guid: 0bc9f3e0b20fe984697b880329a181fd, type: 3}
